super receta 1,resumen 1,ingredientes 1 ,preparar la receta,30 min,https://www.hola.com/imagenes/estar-bien/20180925130054/consejos-para-cuidar-a-un-gatito-recien-nacido-cs/0-601-526/cuidardgatito-t.jpg, None
super receta 2,resumen 2,ingredientes 2 ,preparar la receta,30 min,https://www.hola.com/imagenes/estar-bien/20180925130054/consejos-para-cuidar-a-un-gatito-recien-nacido-cs/0-601-526/cuidardgatito-t.jpg, None
super receta 3,resumen 1,ingredientes 1 ,preparar la receta,30 min,https://www.hola.com/imagenes/estar-bien/20180925130054/consejos-para-cuidar-a-un-gatito-recien-nacido-cs/0-601-526/cuidardgatito-t.jpg, None
super receta 4,resumen 1,ingredientes 1 ,preparar la receta,30 min,https://www.hola.com/imagenes/estar-bien/20180925130054/consejos-para-cuidar-a-un-gatito-recien-nacido-cs/0-601-526/cuidardgatito-t.jpg, None
super receta 5,resumen 1,ingredientes 1 ,preparar la receta,30 min,https://www.hola.com/imagenes/estar-bien/20180925130054/consejos-para-cuidar-a-un-gatito-recien-nacido-cs/0-601-526/cuidardgatito-t.jpg, None
super receta 6,resumen 1,ingredientes 1 ,preparar la receta,30 min,https://www.hola.com/imagenes/estar-bien/20180925130054/consejos-para-cuidar-a-un-gatito-recien-nacido-cs/0-601-526/cuidardgatito-t.jpg, None
super receta 7,resumen 1,ingredientes 1 ,preparar la receta,30 min,https://www.hola.com/imagenes/estar-bien/20180925130054/consejos-para-cuidar-a-un-gatito-recien-nacido-cs/0-601-526/cuidardgatito-t.jpg, None
super receta 8,resumen 1,ingredientes 1 ,preparar la receta,30 min,https://www.hola.com/imagenes/estar-bien/20180925130054/consejos-para-cuidar-a-un-gatito-recien-nacido-cs/0-601-526/cuidardgatito-t.jpg, None
